{
	"@context": "https://schema.org/",
	"@type": "Recipe",
	"name": "Hachee",
	"description": "Hachee is een traditioneel Nederlands stoofgerecht van rundvlees.",
	"inLanguage": "nl",
	"datePublished": "2009-10-30",
	"author": {
		"@type": "Person",
		"name": "Riet van Strien"
	},
	"totalTime": "PT3H30M",
	"cookingMethod": "stoven",
	"keywords": "stoven, rundvlees",
	"recipeYield": {
		"value": 4,
		"unitText": "personen"
	},
	"recipeCategory": "Hoofdgerecht",
	"recipeCuisine": "Nederlands",
	"recipeIngredient": [
		"5 uien",
		"600 gram runderlappen",
		"50 gram boter",
		"zout",
		"zwarte peper",
		"2 eetlepels bloem",
		"1 runderbouillonblokje",
		"0,5 liter warm water",
		"2 eetlepels azijn",
		"1 theelepel suiker",
		"2 laurierblaadjes",
		"4 kruidnagels"
	],
	"recipeInstructions": [
		"Pel de uien en snijd ze in grote stukken. Snijd het rundvlees in dobbelsteentjes.",
		"Smelt de boter in een braadpan en braad het vlees onder voortdurend roeren aan. Voeg na ongeveer 2 minuten de stukken ui toe. Breng het vlees en uien op smaak met zout en peper. Bestuif met bloem en roer goed door elkaar.",
		"Verkruimel het bouillonblokje boven het vlees en voeg een halve liter warm water toe. Het vlees moet net onderstaan. Voeg de azijn, suiker, laurierblaadjes en kruidnagels toe. Breng het geheel langzaam aan de kook.",
		"Zet de deksel schuin op de pan zodat een klein kiertje open blijft. Sudder de hachee in minimaal 3 uur gaar op een zeer laag vuur.",
		"Als de jus te dun blijft, maak dan een beetje aardappelzetmeel aan met water en voeg dit toe.",
		"Proef de jus en breng de hachee eventueel nog op smaak met zout en peper.",
		"Verwijder voor serveren de laurierblaadjes en de kruidnagels.",
		"Serveer de hachee met aardappelpuree en rode kool met appeltjes."
	]
}
