{
	"@context": "https://schema.org/",
	"@type": "Recipe",
	"name": "Macaroni met worst en kaas",
	"description": "Familierecept dat zeker al sinds de jaren 70 in de familie Fesevur gegeten wordt.",
	"inLanguage": "nl",
	"author": {
		"@type": "Person",
		"name": "Lydia Fesevur"
	},
	"totalTime": "PT20M",
	"keywords": "pasta, macaroni, gekookte worst, geraspte kaas",
	"recipeYield": {
		"value": 4,
		"unitText": "personen"
	},
	"recipeCategory": "Hoofdgerecht",
	"recipeCuisine": "Nederlands",
	"recipeIngredient": [
		"500 g macaroni",
		"400 g gekookte Gelderse worst",
		"400 g geraspte kaas",
		"nootmuskaat"
	],
	"recipeInstructions": [
		"Kook de macaroni in ruim kokend water gaar.",
		"Snijd de worst in kleine stukjes.",
		"Als de macaroni gaar is, giet af en doe terug in de pan.",
		"Voeg de geraspte kaas en de worst toe en roer alles goed door elkaar.",
		"Breng het geheel met nootmuskaat op smaak.",
		"Tip: Om het geheel iets smeuïger te maken kun je een scheutje melk toevoegen."
	]
}
