{
	"@context": "https://schema.org/",
	"@type": "Recipe",
	"name": "Thaise viskoekjes met korianderrijst",
	"inLanguage": "nl",
	"datePublished": "2021-10-01",
	"publisher": {
		"@type": "Organization",
		"name": "Boodschappen Magazine"
	},
	"url": "https://www.boodschappen.nl/recept/thaise-viskoekjes-met-korianderrijst/",
	"totalTime": "PT30M",
	"keywords": "aziatisch,vis,rijst",
	"recipeYield": {
		"value": 4,
		"unitText": "personen"
	},
	"recipeCategory": "Hoofdgerecht",
	"recipeCuisine": "Thais",
	"recipeIngredient": [
		"200 gram pandanrijst",
		"500 gram kabeljauwfilets",
		"3 eetlepels Thaise rode currypasta",
		"2 eetlepels paneermeel",
		"2 eieren",
		"3 eetlepels Thaise vissaus",
		"1 limoen (rasp en sap)",
		"4 eetlepels koriander (fijngesneden)",
		"100 gram sperziebonen",
		"1 eetlepel suiker",
		"zonnebloemolie (om te frituren)"
	],
	"recipeInstructions": [
		"Kook de rijst. Maal de kabeljauw in een keukenmachine fijn met de currypasta, paneermeel, eieren, 1 eetlepel vissaus, limoenrasp en 1 eetlepel koriander.",
		"Snijd de sperziebonen in hele dunne plakjes en meng door het vismengsel. Maak met natte handen circa 16 viskoekjes en houd apart. Meng de overige vissaus met het limoensap, de suiker en rode peper tot een dipsaus.",
		"Verhit een laagje zonnebloemolie in een brede (hapjes)pan en bak hierin de viskoekjes op middelhoge stand in een paar minuten goudbruin. Laat uitlekken op keukenpapier.",
		"Meng voor het serveren de overige koriander door de rijst en serveer met de viskoekjes en saus.",
		"Tip: Kook voor wat meer groenten extra sperziebonen bij dit recept.",
		"Tip: Ook lekker met gele rijst."
	],
	"nutrition": {
		"@type": "NutritionInformation",
		"calories": "565 kcal per persoon",
		"fatContent": "28 g per persoon"
	}
}
